Suite/Test/Step Name,Browser,Description,Tag,Start time,End time,Duration,Status
TS002 - Login,Chrome 122.0.0.0,,,27-04-2024 18:05:48,27-04-2024 18:06:45,57.379s,PASSED
,,,,,,,
Test Cases/002 - Login/TC001 - Login with registered account,Chrome 122.0.0.0,Login with registered username and password,,27-04-2024 18:05:48,27-04-2024 18:05:57,9.473s,PASSED
"openBrowser("""")",Chrome 122.0.0.0,,,27-04-2024 18:05:48,27-04-2024 18:05:50,1.648s,PASSED
"navigateToUrl(""https://www.demoblaze.com/"")",Chrome 122.0.0.0,,,27-04-2024 18:05:50,27-04-2024 18:05:51,1.084s,PASSED
maximizeWindow(),Chrome 122.0.0.0,,,27-04-2024 18:05:51,27-04-2024 18:05:51,0.160s,PASSED
"click(findTestObject(""Object Repository/002-Login/a_Log in""))",Chrome 122.0.0.0,,,27-04-2024 18:05:51,27-04-2024 18:05:52,0.960s,PASSED
"setText(findTestObject(""Object Repository/002-Login/input_username""), ""testcoba1"")",Chrome 122.0.0.0,,,27-04-2024 18:05:52,27-04-2024 18:05:53,0.992s,PASSED
"setEncryptedText(findTestObject(""Object Repository/002-Login/input_password""), ""p4y+y39Ir5PJb2ispxT0Ew=="")",Chrome 122.0.0.0,,,27-04-2024 18:05:53,27-04-2024 18:05:53,0.376s,PASSED
"click(findTestObject(""Object Repository/002-Login/button_Log in""))",Chrome 122.0.0.0,,,27-04-2024 18:05:53,27-04-2024 18:05:54,0.475s,PASSED
delay(2),Chrome 122.0.0.0,,,27-04-2024 18:05:54,27-04-2024 18:05:56,2.034s,PASSED
takeFullPageScreenshot(),Chrome 122.0.0.0,,,27-04-2024 18:05:56,27-04-2024 18:05:57,1.484s,PASSED
,,,,,,,
Test Cases/002 - Login/TC002 - Login unregistered account,Chrome 122.0.0.0,Login with wrong/unregistered username,,27-04-2024 18:05:57,27-04-2024 18:06:06,8.146s,PASSED
"openBrowser("""")",Chrome 122.0.0.0,,,27-04-2024 18:05:57,27-04-2024 18:05:58,0.962s,PASSED
"navigateToUrl(""https://www.demoblaze.com/"")",Chrome 122.0.0.0,,,27-04-2024 18:05:58,27-04-2024 18:06:00,1.230s,PASSED
maximizeWindow(),Chrome 122.0.0.0,,,27-04-2024 18:06:00,27-04-2024 18:06:00,0.175s,PASSED
"click(findTestObject(""Object Repository/002-Login/a_Log in""))",Chrome 122.0.0.0,,,27-04-2024 18:06:00,27-04-2024 18:06:01,0.754s,PASSED
"setText(findTestObject(""Object Repository/002-Login/input_username""), ""cobacoba"")",Chrome 122.0.0.0,,,27-04-2024 18:06:01,27-04-2024 18:06:02,0.935s,PASSED
"setEncryptedText(findTestObject(""Object Repository/002-Login/input_password""), ""p4y+y39Ir5PJb2ispxT0Ew=="")",Chrome 122.0.0.0,,,27-04-2024 18:06:02,27-04-2024 18:06:02,0.350s,PASSED
"click(findTestObject(""Object Repository/002-Login/button_Log in""))",Chrome 122.0.0.0,,,27-04-2024 18:06:02,27-04-2024 18:06:02,0.304s,PASSED
delay(2),Chrome 122.0.0.0,,,27-04-2024 18:06:02,27-04-2024 18:06:04,2.006s,PASSED
takeFullPageScreenshot(),Chrome 122.0.0.0,,,27-04-2024 18:06:04,27-04-2024 18:06:06,1.335s,PASSED
,,,,,,,
Test Cases/002 - Login/TC003 - Login with wrong password,Chrome 122.0.0.0,Login with wrong/unregistered username,,27-04-2024 18:06:06,27-04-2024 18:06:14,8.172s,PASSED
"openBrowser("""")",Chrome 122.0.0.0,,,27-04-2024 18:06:06,27-04-2024 18:06:07,1.012s,PASSED
"navigateToUrl(""https://www.demoblaze.com/"")",Chrome 122.0.0.0,,,27-04-2024 18:06:07,27-04-2024 18:06:07,0.749s,PASSED
maximizeWindow(),Chrome 122.0.0.0,,,27-04-2024 18:06:07,27-04-2024 18:06:07,0.121s,PASSED
"click(findTestObject(""Object Repository/002-Login/a_Log in""))",Chrome 122.0.0.0,,,27-04-2024 18:06:07,27-04-2024 18:06:09,1.057s,PASSED
"setText(findTestObject(""Object Repository/002-Login/input_username""), ""cobacoba"")",Chrome 122.0.0.0,,,27-04-2024 18:06:09,27-04-2024 18:06:09,0.926s,PASSED
"setText(findTestObject(""Object Repository/002-Login/input_password""), ""pass123"")",Chrome 122.0.0.0,,,27-04-2024 18:06:09,27-04-2024 18:06:10,0.628s,PASSED
"click(findTestObject(""Object Repository/002-Login/button_Log in""))",Chrome 122.0.0.0,,,27-04-2024 18:06:10,27-04-2024 18:06:10,0.293s,PASSED
delay(2),Chrome 122.0.0.0,,,27-04-2024 18:06:10,27-04-2024 18:06:12,2.005s,PASSED
takeFullPageScreenshot(),Chrome 122.0.0.0,,,27-04-2024 18:06:12,27-04-2024 18:06:14,1.318s,PASSED
,,,,,,,
Test Cases/002 - Login/TC004 - Login with username using SQL injection,Chrome 122.0.0.0,Login with wrong/unregistered username,,27-04-2024 18:06:14,27-04-2024 18:06:22,8.407s,PASSED
"openBrowser("""")",Chrome 122.0.0.0,,,27-04-2024 18:06:14,27-04-2024 18:06:15,0.967s,PASSED
"navigateToUrl(""https://www.demoblaze.com/"")",Chrome 122.0.0.0,,,27-04-2024 18:06:15,27-04-2024 18:06:16,1.016s,PASSED
maximizeWindow(),Chrome 122.0.0.0,,,27-04-2024 18:06:16,27-04-2024 18:06:16,0.122s,PASSED
"click(findTestObject(""Object Repository/002-Login/a_Log in""))",Chrome 122.0.0.0,,,27-04-2024 18:06:16,27-04-2024 18:06:17,1.310s,PASSED
"setText(findTestObject(""Object Repository/002-Login/input_username""), ""'or '1'='1"")",Chrome 122.0.0.0,,,27-04-2024 18:06:17,27-04-2024 18:06:18,0.931s,PASSED
"setEncryptedText(findTestObject(""Object Repository/002-Login/input_password""), ""p4y+y39Ir5PJb2ispxT0Ew=="")",Chrome 122.0.0.0,,,27-04-2024 18:06:18,27-04-2024 18:06:19,0.372s,PASSED
"click(findTestObject(""Object Repository/002-Login/button_Log in""))",Chrome 122.0.0.0,,,27-04-2024 18:06:19,27-04-2024 18:06:19,0.327s,PASSED
delay(2),Chrome 122.0.0.0,,,27-04-2024 18:06:19,27-04-2024 18:06:21,2.003s,PASSED
takeFullPageScreenshot(),Chrome 122.0.0.0,,,27-04-2024 18:06:21,27-04-2024 18:06:22,1.286s,PASSED
,,,,,,,
Test Cases/002 - Login/TC005 - Login with password using SQL injection,Chrome 122.0.0.0,Login with wrong/unregistered username,,27-04-2024 18:06:22,27-04-2024 18:06:31,8.483s,PASSED
"openBrowser("""")",Chrome 122.0.0.0,,,27-04-2024 18:06:22,27-04-2024 18:06:23,0.878s,PASSED
"navigateToUrl(""https://www.demoblaze.com/"")",Chrome 122.0.0.0,,,27-04-2024 18:06:23,27-04-2024 18:06:24,1.231s,PASSED
maximizeWindow(),Chrome 122.0.0.0,,,27-04-2024 18:06:24,27-04-2024 18:06:24,0.131s,PASSED
"click(findTestObject(""Object Repository/002-Login/a_Log in""))",Chrome 122.0.0.0,,,27-04-2024 18:06:24,27-04-2024 18:06:25,0.934s,PASSED
"setText(findTestObject(""Object Repository/002-Login/input_username""), ""testakun"")",Chrome 122.0.0.0,,,27-04-2024 18:06:25,27-04-2024 18:06:26,0.951s,PASSED
"setText(findTestObject(""Object Repository/002-Login/input_password""), ""'or '1'='1"")",Chrome 122.0.0.0,,,27-04-2024 18:06:26,27-04-2024 18:06:27,0.672s,PASSED
"click(findTestObject(""Object Repository/002-Login/button_Log in""))",Chrome 122.0.0.0,,,27-04-2024 18:06:27,27-04-2024 18:06:27,0.303s,PASSED
delay(2),Chrome 122.0.0.0,,,27-04-2024 18:06:27,27-04-2024 18:06:29,2.006s,PASSED
takeFullPageScreenshot(),Chrome 122.0.0.0,,,27-04-2024 18:06:29,27-04-2024 18:06:31,1.306s,PASSED
,,,,,,,
Test Cases/002 - Login/TC006 - Login with empty field,Chrome 122.0.0.0,,,27-04-2024 18:06:31,27-04-2024 18:06:39,8.004s,PASSED
"openBrowser("""")",Chrome 122.0.0.0,,,27-04-2024 18:06:31,27-04-2024 18:06:32,0.907s,PASSED
"navigateToUrl(""https://www.demoblaze.com/"")",Chrome 122.0.0.0,,,27-04-2024 18:06:32,27-04-2024 18:06:32,0.712s,PASSED
maximizeWindow(),Chrome 122.0.0.0,,,27-04-2024 18:06:32,27-04-2024 18:06:32,0.120s,PASSED
"click(findTestObject(""Object Repository/002-Login/a_Log in""))",Chrome 122.0.0.0,,,27-04-2024 18:06:32,27-04-2024 18:06:33,1.053s,PASSED
"setText(findTestObject(""Object Repository/002-Login/input_username""), """")",Chrome 122.0.0.0,,,27-04-2024 18:06:33,27-04-2024 18:06:34,0.937s,PASSED
"setText(findTestObject(""Object Repository/002-Login/input_password""), """")",Chrome 122.0.0.0,,,27-04-2024 18:06:34,27-04-2024 18:06:35,0.617s,PASSED
"click(findTestObject(""Object Repository/002-Login/button_Log in""))",Chrome 122.0.0.0,,,27-04-2024 18:06:35,27-04-2024 18:06:35,0.305s,PASSED
delay(2),Chrome 122.0.0.0,,,27-04-2024 18:06:35,27-04-2024 18:06:37,2.003s,PASSED
takeFullPageScreenshot(),Chrome 122.0.0.0,,,27-04-2024 18:06:37,27-04-2024 18:06:39,1.285s,PASSED
,,,,,,,
Test Cases/002 - Login/TC007 - Close form login,Chrome 122.0.0.0,,,27-04-2024 18:06:39,27-04-2024 18:06:45,6.505s,PASSED
"openBrowser("""")",Chrome 122.0.0.0,,,27-04-2024 18:06:39,27-04-2024 18:06:40,0.885s,PASSED
"navigateToUrl(""https://www.demoblaze.com/"")",Chrome 122.0.0.0,,,27-04-2024 18:06:40,27-04-2024 18:06:41,0.995s,PASSED
maximizeWindow(),Chrome 122.0.0.0,,,27-04-2024 18:06:41,27-04-2024 18:06:41,0.124s,PASSED
"click(findTestObject(""002-Login/a_Log in""))",Chrome 122.0.0.0,,,27-04-2024 18:06:41,27-04-2024 18:06:41,0.749s,PASSED
delay(2),Chrome 122.0.0.0,,,27-04-2024 18:06:41,27-04-2024 18:06:43,2.004s,PASSED
"click(findTestObject(""Object Repository/002-Login/button_Close""))",Chrome 122.0.0.0,,,27-04-2024 18:06:43,27-04-2024 18:06:44,0.330s,PASSED
takeFullPageScreenshot(),Chrome 122.0.0.0,,,27-04-2024 18:06:44,27-04-2024 18:06:45,1.361s,PASSED
